pipelined_nuevo_final.sim/sim_1/behav/xsim/simulate.log
Time resolution is 1 ps
[PIPE] t=25000 | F=00005437 | D=00000000 | E=00000000 | M=00000000 | W=00000000
[PIPE] t=35000 | F=00540413 | D=00005437 | E=00000000 | M=00000000 | W=00000000
[PIPE] t=45000 | F=000054b7 | D=00540413 | E=00005437 | M=00000000 | W=00000000
[PIPE] t=55000 | F=00700513 | D=000054b7 | E=00540413 | M=00005437 | W=00000000
[PIPE] t=65000 | F=00241413 | D=00700513 | E=000054b7 | M=00540413 | W=00005437
[PIPE] t=75000 | F=00145413 | D=00241413 | E=00700513 | M=000054b7 | W=00540413
[PIPE] t=85000 | F=00548493 | D=00145413 | E=00241413 | M=00700513 | W=000054b7
[PIPE] t=95000 | F=00249493 | D=00548493 | E=00145413 | M=00241413 | W=00700513
[PIPE] t=105000 | F=80145413 | D=00249493 | E=00548493 | M=00145413 | W=00241413
[PIPE] t=115000 | F=00a40433 | D=80145413 | E=00249493 | M=00548493 | W=00145413
[PIPE] t=125000 | F=0014d493 | D=00a40433 | E=80145413 | M=00249493 | W=00548493
[PIPE] t=135000 | F=4014d493 | D=0014d493 | E=00a40433 | M=80145413 | W=00249493
[PIPE] t=145000 | F=40a40433 | D=4014d493 | E=0014d493 | M=00a40433 | W=80145413
[PIPE] t=155000 | F=00a47433 | D=40a40433 | E=4014d493 | M=0014d493 | W=00a40433
[PIPE] t=165000 | F=00a484b3 | D=00a47433 | E=40a40433 | M=4014d493 | W=0014d493
[PIPE] t=175000 | F=40a484b3 | D=00a484b3 | E=00a47433 | M=40a40433 | W=4014d493
[PIPE] t=185000 | F=00a46433 | D=40a484b3 | E=00a484b3 | M=00a47433 | W=40a40433
[PIPE] t=195000 | F=00a44433 | D=00a46433 | E=40a484b3 | M=00a484b3 | W=00a47433
[PIPE] t=205000 | F=00a4f4b3 | D=00a44433 | E=00a46433 | M=40a484b3 | W=00a484b3
[PIPE] t=215000 | F=00a4e4b3 | D=00a4f4b3 | E=00a44433 | M=00a46433 | W=40a484b3
[PIPE] t=225000 | F=00a4c4b3 | D=00a4e4b3 | E=00a4f4b3 | M=00a44433 | W=00a46433
[PIPE] t=235000 | F=409405b3 | D=00a4c4b3 | E=00a4e4b3 | M=00a4f4b3 | W=00a44433
[PIPE] t=245000 | F=06b02223 | D=409405b3 | E=00a4c4b3 | M=00a4e4b3 | W=00a4f4b3
[PIPE] t=255000 | F=00000013 | D=06b02223 | E=409405b3 | M=00a4c4b3 | W=00a4e4b3
[PIPE] t=265000 | F=00000013 | D=00000013 | E=06b02223 | M=409405b3 | W=00a4c4b3
[PIPE] t=275000 | F=00000013 | D=00000013 | E=00000013 | M=06b02223 | W=409405b3

----------------------------------------
[PASS] tb_rvc_equivalence
Todas las instrucciones RVC
producen el mismo resultado
que sus equivalentes RV32I.
mem[100] = 00000000
----------------------------------------
$finish called at time : 275 ns : File "C:/Users/Usuario/pipelined_nuevo_final/pipelined_nuevo_final.srcs/sim_1/new/tb_rvc_equivalence1.v" Line 142
